%YAML 1.1
%TAG !u! tag:unity3d.com,2011:
--- !u!1045 &1
EditorBuildSettings:
  m_ObjectHideFlags: 0
  serializedVersion: 2
  m_Scenes:
  - enabled: 1
    path: Assets/_Scenes/Menu.unity
    guid: 35edc8961cba64569b677d540b47c0a4
  - enabled: 1
    path: Assets/_Scenes/Prototype 5.1.unity
    guid: f6fe8313d54d638479df5362f663d8e9
  m_configObjects: {}
