%YAML 1.1
%TAG !u! tag:unity3d.com,2011:
--- !u!114 &-6214669414126566475
MonoBehaviour:
  m_ObjectHideFlags: 3
  m_CorrespondingSourceObject: {fileID: 0}
  m_PrefabInstance: {fileID: 0}
  m_PrefabAsset: {fileID: 0}
  m_GameObject: {fileID: 0}
  m_Enabled: 1
  m_EditorHideFlags: 0
  m_Script: {fileID: 11500000, guid: 66f335fb1ffd8684294ad653bf1c7564, type: 3}
  m_Name: ColorAdjustments
  m_EditorClassIdentifier: 
  active: 1
  m_AdvancedMode: 0
  postExposure:
    m_OverrideState: 0
    m_Value: 1
  contrast:
    m_OverrideState: 1
    m_Value: 3
    min: -100
    max: 100
  colorFilter:
    m_OverrideState: 0
    m_Value: {r: 1, g: 1, b: 1, a: 1}
    hdr: 1
    showAlpha: 0
    showEyeDropper: 1
  hueShift:
    m_OverrideState: 0
    m_Value: 0
    min: -180
    max: 180
  saturation:
    m_OverrideState: 1
    m_Value: 0.1
    min: -100
    max: 100
--- !u!114 &-4327361507220478211
MonoBehaviour:
  m_ObjectHideFlags: 3
  m_CorrespondingSourceObject: {fileID: 0}
  m_PrefabInstance: {fileID: 0}
  m_PrefabAsset: {fileID: 0}
  m_GameObject: {fileID: 0}
  m_Enabled: 1
  m_EditorHideFlags: 0
  m_Script: {fileID: 11500000, guid: 97c23e3b12dc18c42a140437e53d3951, type: 3}
  m_Name: Tonemapping
  m_EditorClassIdentifier: 
  active: 1
  m_AdvancedMode: 0
  mode:
    m_OverrideState: 1
    m_Value: 1
--- !u!114 &-1260744207084604072
MonoBehaviour:
  m_ObjectHideFlags: 3
  m_CorrespondingSourceObject: {fileID: 0}
  m_PrefabInstance: {fileID: 0}
  m_PrefabAsset: {fileID: 0}
  m_GameObject: {fileID: 0}
  m_Enabled: 1
  m_EditorHideFlags: 0
  m_Script: {fileID: 11500000, guid: cdfbdbb87d3286943a057f7791b43141, type: 3}
  m_Name: ChannelMixer
  m_EditorClassIdentifier: 
  active: 1
  m_AdvancedMode: 0
  redOutRedIn:
    m_OverrideState: 0
    m_Value: 100
    min: -200
    max: 200
  redOutGreenIn:
    m_OverrideState: 0
    m_Value: 0
    min: -200
    max: 200
  redOutBlueIn:
    m_OverrideState: 0
    m_Value: 0
    min: -200
    max: 200
  greenOutRedIn:
    m_OverrideState: 0
    m_Value: 0
    min: -200
    max: 200
  greenOutGreenIn:
    m_OverrideState: 0
    m_Value: 100
    min: -200
    max: 200
  greenOutBlueIn:
    m_OverrideState: 0
    m_Value: 0
    min: -200
    max: 200
  blueOutRedIn:
    m_OverrideState: 0
    m_Value: 0
    min: -200
    max: 200
  blueOutGreenIn:
    m_OverrideState: 0
    m_Value: 0
    min: -200
    max: 200
  blueOutBlueIn:
    m_OverrideState: 0
    m_Value: 100
    min: -200
    max: 200
--- !u!114 &11400000
MonoBehaviour:
  m_ObjectHideFlags: 0
  m_CorrespondingSourceObject: {fileID: 0}
  m_PrefabInstance: {fileID: 0}
  m_PrefabAsset: {fileID: 0}
  m_GameObject: {fileID: 0}
  m_Enabled: 1
  m_EditorHideFlags: 0
  m_Script: {fileID: 11500000, guid: d7fd9488000d3734a9e00ee676215985, type: 3}
  m_Name: Global Volume Profile
  m_EditorClassIdentifier: 
  components:
  - {fileID: 7482986263456658292}
  - {fileID: 1846866259598680638}
  - {fileID: -4327361507220478211}
  - {fileID: 2946224611007184749}
  - {fileID: -6214669414126566475}
  - {fileID: -1260744207084604072}
--- !u!114 &1846866259598680638
MonoBehaviour:
  m_ObjectHideFlags: 3
  m_CorrespondingSourceObject: {fileID: 0}
  m_PrefabInstance: {fileID: 0}
  m_PrefabAsset: {fileID: 0}
  m_GameObject: {fileID: 0}
  m_Enabled: 1
  m_EditorHideFlags: 0
  m_Script: {fileID: 11500000, guid: 899c54efeace73346a0a16faa3afe726, type: 3}
  m_Name: Vignette
  m_EditorClassIdentifier: 
  active: 1
  m_AdvancedMode: 0
  color:
    m_OverrideState: 1
    m_Value: {r: 0, g: 0, b: 0, a: 1}
    hdr: 0
    showAlpha: 0
    showEyeDropper: 1
  center:
    m_OverrideState: 1
    m_Value: {x: 0.5, y: 0.5}
  intensity:
    m_OverrideState: 1
    m_Value: 0.225
    min: 0
    max: 1
  smoothness:
    m_OverrideState: 1
    m_Value: 0.5
    min: 0.01
    max: 1
  rounded:
    m_OverrideState: 1
    m_Value: 1
--- !u!114 &2946224611007184749
MonoBehaviour:
  m_ObjectHideFlags: 3
  m_CorrespondingSourceObject: {fileID: 0}
  m_PrefabInstance: {fileID: 0}
  m_PrefabAsset: {fileID: 0}
  m_GameObject: {fileID: 0}
  m_Enabled: 1
  m_EditorHideFlags: 0
  m_Script: {fileID: 11500000, guid: 29fa0085f50d5e54f8144f766051a691, type: 3}
  m_Name: FilmGrain
  m_EditorClassIdentifier: 
  active: 1
  m_AdvancedMode: 0
  type:
    m_OverrideState: 1
    m_Value: 1
  intensity:
    m_OverrideState: 1
    m_Value: 0.5
    min: 0
    max: 1
  response:
    m_OverrideState: 1
    m_Value: 0.5
    min: 0
    max: 1
  texture:
    m_OverrideState: 0
    m_Value: {fileID: 0}
--- !u!114 &7482986263456658292
MonoBehaviour:
  m_ObjectHideFlags: 3
  m_CorrespondingSourceObject: {fileID: 0}
  m_PrefabInstance: {fileID: 0}
  m_PrefabAsset: {fileID: 0}
  m_GameObject: {fileID: 0}
  m_Enabled: 1
  m_EditorHideFlags: 0
  m_Script: {fileID: 11500000, guid: 0b2db86121404754db890f4c8dfe81b2, type: 3}
  m_Name: Bloom
  m_EditorClassIdentifier: 
  active: 1
  m_AdvancedMode: 0
  threshold:
    m_OverrideState: 1
    m_Value: 1
    min: 0
  intensity:
    m_OverrideState: 1
    m_Value: 4.75
    min: 0
  scatter:
    m_OverrideState: 1
    m_Value: 0.7
    min: 0
    max: 1
  clamp:
    m_OverrideState: 1
    m_Value: 65472
    min: 0
  tint:
    m_OverrideState: 1
    m_Value: {r: 0.7311321, g: 1, b: 0.9711927, a: 1}
    hdr: 0
    showAlpha: 0
    showEyeDropper: 1
  highQualityFiltering:
    m_OverrideState: 1
    m_Value: 1
  dirtTexture:
    m_OverrideState: 1
    m_Value: {fileID: 0}
  dirtIntensity:
    m_OverrideState: 1
    m_Value: 0
    min: 0
