%YAML 1.1
%TAG !u! tag:unity3d.com,2011:
--- !u!114 &11400000
MonoBehaviour:
  m_ObjectHideFlags: 0
  m_CorrespondingSourceObject: {fileID: 0}
  m_PrefabInstance: {fileID: 0}
  m_PrefabAsset: {fileID: 0}
  m_GameObject: {fileID: 0}
  m_Enabled: 1
  m_EditorHideFlags: 0
  m_Script: {fileID: 11500000, guid: 813887743e50baa488fcd13e640f2294, type: 3}
  m_Name: MASTER C
  m_EditorClassIdentifier: 
  levelNumber: 1
  taskNumber: 0
  productivity: 80
  startingProductivity: 80
  quest:
  - {fileID: 11400000, guid: b2586777d799017488ab9bfc71450ee5, type: 2}
  - {fileID: 11400000, guid: 29894ed21f2e83b449817818a516a720, type: 2}
  - {fileID: 11400000, guid: 0bb34fc5aeeec334289614713626beb3, type: 2}
  - {fileID: 11400000, guid: b017cee475bb70544b9c611728252601, type: 2}
  - {fileID: 11400000, guid: a44fcacea340cca46a64da48a80c54f6, type: 2}
  - {fileID: 11400000, guid: 40a61f762bec8964491d2cc76f4e82bb, type: 2}
  - {fileID: 11400000, guid: d00917d9f6493634dba003169967bb1d, type: 2}
  - {fileID: 11400000, guid: 245a01d8bbc603444bff511a242f7f77, type: 2}
  - {fileID: 11400000, guid: bc79711d2f430e54a9f1a857062a5680, type: 2}
  - {fileID: 11400000, guid: fef9e334177b0244f8658bc5cb3d6072, type: 2}
  editableQuest:
  - {fileID: 11400000, guid: b2586777d799017488ab9bfc71450ee5, type: 2}
  - {fileID: 11400000, guid: 29894ed21f2e83b449817818a516a720, type: 2}
  - {fileID: 11400000, guid: 0bb34fc5aeeec334289614713626beb3, type: 2}
  - {fileID: 11400000, guid: b017cee475bb70544b9c611728252601, type: 2}
  - {fileID: 11400000, guid: a44fcacea340cca46a64da48a80c54f6, type: 2}
  - {fileID: 11400000, guid: 40a61f762bec8964491d2cc76f4e82bb, type: 2}
  - {fileID: 11400000, guid: d00917d9f6493634dba003169967bb1d, type: 2}
  - {fileID: 11400000, guid: 245a01d8bbc603444bff511a242f7f77, type: 2}
  - {fileID: 11400000, guid: bc79711d2f430e54a9f1a857062a5680, type: 2}
  - {fileID: 11400000, guid: fef9e334177b0244f8658bc5cb3d6072, type: 2}
