%YAML 1.1
%TAG !u! tag:unity3d.com,2011:
--- !u!114 &11400000
MonoBehaviour:
  m_ObjectHideFlags: 0
  m_CorrespondingSourceObject: {fileID: 0}
  m_PrefabInstance: {fileID: 0}
  m_PrefabAsset: {fileID: 0}
  m_GameObject: {fileID: 0}
  m_Enabled: 1
  m_EditorHideFlags: 0
  m_Script: {fileID: 11500000, guid: 94718ad554380864287e245bce091bd2, type: 3}
  m_Name: JOB A
  m_EditorClassIdentifier: 
  JOB_NAME: 
  JOB_DESC: 
  JOB_HOWTO: 
  MINIGAME_TYPE: 0
  completed: 0
  JOB_TIME_MIN: 0
  JOB_TIME_MAX: 0
  JOB_PAY_MIN: 0
  JOB_PAY_MAX: 0
  RESOURCE_TYPE: 
  NPC_DIST: 0
  WORKING_FX: {fileID: 0}
  problemFound: 0
  outOfOrder: 0
  DIFF_MULT: 1
